Model: "sequential"
_________________________________________________________________
 Layer (type)                Output Shape              Param #   
=================================================================
 dense (Dense)               (None, 20)                100       
                                                                 
 dense_1 (Dense)             (None, 30)                630       
                                                                 
 dense_2 (Dense)             (None, 1)                 31        
                                                                 
=================================================================
Total params: 761
Trainable params: 761
Non-trainable params: 0
_________________________________________________________________
