Model: "sequential"
_________________________________________________________________
 Layer (type)                Output Shape              Param #   
=================================================================
 dense (Dense)               (None, 30)                150       
                                                                 
 dense_1 (Dense)             (None, 10)                310       
                                                                 
 dense_2 (Dense)             (None, 1)                 11        
                                                                 
=================================================================
Total params: 471
Trainable params: 471
Non-trainable params: 0
_________________________________________________________________
